covariables_analysis.knit
…
incidence_weekly_weather_df

## # A tsibble: 1,252 x 15 [1W]
##    date_admitted     n      hb mx2t24 mn2t24 mxrh24 mnrh24 mxsh24 mnsh24 precip
##           <week> <dbl>   <dbl>  <dbl>  <dbl>  <dbl>  <dbl>  <dbl>  <dbl>  <dbl>
##  1      1999 W01    NA  0.0200   29.8   23.5   93.8   67.3   18.9   15.8 143.  
##  2      1999 W02    NA -0.108    30.9   24.2   94.0   61.8   18.9   16.3  31.4 
##  3      1999 W03    NA -0.0248   30.3   23.8   92.7   64.5   18.4   16.5  92.5 
##  4      1999 W04    NA -0.124    30.2   22.6   90.7   55.8   17.1   13.5   9.18
##  5      1999 W05    NA -0.0908   30.8   24.1   90.9   57.8   17.8   15.3  36.4 
##  6      1999 W06    NA -0.135    31.1   22.8   89.3   49.8   16.5   13.7   1.20
##  7      1999 W07    NA -0.126    32.6   24.2   83.8   49.4   16.9   14.2   5.23
##  8      1999 W08    NA -0.0874   31.6   24.7   92.3   58.4   18.4   16.4  29.6 
##  9      1999 W09    NA -0.0998   32.9   25.2   92.3   55.8   19.1   17.0  21.7 
## 10      1999 W10    NA -0.0600   33.7   26.0   91.3   55.2   19.8   17.4  59.1 
## #  1,242 more rows
## #  5 more variables: rh <dbl>, sh <dbl>, ssdr <dbl>, t2m <dbl>, ws <dbl>
…
