covariables.knit
…
incidence_weekly_weather_df

## # A tsibble: 1,252 x 5 [1W]
##    date_admitted     n   t2m precip    rh
##           <week> <dbl> <dbl>  <dbl> <dbl>
##  1      1999 W01    NA  26.2 143.    82.8
##  2      1999 W02    NA  27.2  31.4   79.8
##  3      1999 W03    NA  26.7  92.5   80.7
##  4      1999 W04    NA  26.2   9.18  74.0
##  5      1999 W05    NA  27.0  36.4   75.4
##  6      1999 W06    NA  26.6   1.20  71.5
##  7      1999 W07    NA  27.8   5.23  68.4
##  8      1999 W08    NA  27.6  29.6   77.0
##  9      1999 W09    NA  28.3  21.7   76.5
## 10      1999 W10    NA  29.0  59.1   75.9
## #  1,242 more rows
…
